402296 79b2bb543ef97ee45ba587da44868953
402297 9d0c6d1c499c3af366bc0d841362d338
402298 5abc9e4e981759ce329b5fce3c23b56f
402299 b0137e0ffceab7b4f8d3a2caf2792a93
405351 b4033d024648b018d27218e979aa1d26
405353 a6eca950e1d2a8c1bea82a1a0354a1cf
405354 5a322b20304dad0af4643a30d93195da
405355 c5de9082d8289ed1a35f3ebe584e9d18
405356 3428131efbc9b29701a34cc6bee49106
405357 1fef4bd85925e478168d121828718f94
405358 73e910b5dc45c7fa9315edfc0a621cb3
405359 fef2d9e42eede9fe936a4cfb8206fa1a
405360 fa22678fb9346eb62aec1b58b542238b
405361 a2185d26b9a381cbc65477cb4c791fae
405362 fafa1e383167c769150c014ccd6f8f21
405363 aa95f57d55a05dae162566da2fed4460
405364 cdcc4498f2afea49a176ee38203c6bea
405365 e4b4b0594ca5da811c5f382afd7486cc
410542 92749002776881d7862f07879b8bca6a
410543 e9e97c61c2c220b596f244775ca1d1f0
410544 6cbb168f68a88e90ac456c22dd00a95d
410545 2f3099eadfec770bfd83d58a7bc1c28c
410546 92749002776881d7862f07879b8bca6a
410547 e9e97c61c2c220b596f244775ca1d1f0
410548 6cbb168f68a88e90ac456c22dd00a95d
410549 2f3099eadfec770bfd83d58a7bc1c28c
410550 934db35538839813387f4329b710bb19
410551 ef69d9acaee34e3cac25083de10ecd6a
410552 f356f85b4715330c9a87d7a7f92a94cc
410553 1cbdcab7506e5236cd7321379425f4fd
410554 423b7aa7b9076cfa5ce622a14f0e240f
410555 1347dfb9f6b118a5117c78edd994b974
410556 03e5eb11bb3424d2ac7e3c4fc58ef7c3
410557 3c6675fc005acaadec2fcee3cd764822
410558 41a502561c62bdb26cce346a3ee830db
410559 5d8fb478c084bdae81671840f4b19ada
410560 620023bc2c95ae6befa17aecae04ff03
502565 d685e96eca5d50088b3633c409bbca88
502566 b695a639814e92176b715054ddcb4e01
502567 36a772450370a4e346e3af34c74610f6
502568 a39e765dbef9a43dcd37fba1a800d5bf
502569 1df38549817ba6318ef9b79dc7508fe2
502570 ef98789a0e8f2b92d3d80a34a5cbfb9c
502571 14f52e594859012abb578ccc4164b614
502572 87eae2e221dbe250ddc906faab95d392
502573 10071e7c631a15d969c8897f7357cac5
502574 d16533c6d1a593ea940ce1929522546d
